accession	authors	city	country	country_exposure	date	division	first_public	host	location	origin	originating_lab	region	strain	submitting_lab	virus
BS000691		Kanto	Japan		2018-04-06		2021-05-27	Homo sapiens		ebi10			BS000691		Severe acute respiratory syndrome coronavirus 2
BS000692		Kanto	Japan		2019-04-06		2021-05-27	Homo sapiens		ebi10			BS000692		Severe acute respiratory syndrome coronavirus 2
BS000693		Kanto	Japan		04-08		2021-05-27	Homo sapiens		ebi10			BS000693		Severe acute respiratory syndrome coronavirus 2
BS000694		Kanto	Japan		2020		2021-05-27	Homo sapiens		ebi10			BS000694		Severe acute respiratory syndrome coronavirus 2
