strain	virus	accession	first_public	date	location	country	originating lab	submitting lab	host	city	division	region	authors
BS000685	Severe acute respiratory syndrome coronavirus 2	BS000685	2021-05-27	2020-04-06		Japan			Homo sapiens	Kanto			
BS000686	Severe acute respiratory syndrome coronavirus 2	BS000686	2021-05-27	2020-04-06		Japan			Homo sapiens	Kanto			
BS000687	Severe acute respiratory syndrome coronavirus 2	BS000687	2021-05-27	2020-04-06		Japan			Homo sapiens	Kanto			
BS000688	Severe acute respiratory syndrome coronavirus 2	BS000688	2021-05-27	2020-04-06		Japan			Homo sapiens	Kanto			
BS000689	Severe acute respiratory syndrome coronavirus 2	BS000689	2021-05-27	2020-04-06		Japan			Homo sapiens	Kanto			
BS000690	Severe acute respiratory syndrome coronavirus 2	BS000690	2021-05-27	2020-04-06		Japan			Homo sapiens	Kanto			
BS000691	Severe acute respiratory syndrome coronavirus 2	BS000691	2021-05-27	2020-04-06		Japan			Homo sapiens	Kanto			
BS000692	Severe acute respiratory syndrome coronavirus 2	BS000692	2021-05-27	2020-04-06		Japan			Homo sapiens	Kanto			
BS000693	Severe acute respiratory syndrome coronavirus 2	BS000693	2021-05-27	2020-04-08		Japan			Homo sapiens	Kanto			
BS000694	Severe acute respiratory syndrome coronavirus 2	BS000694	2021-05-27	2020-04-09		Japan			Homo sapiens	Kanto			
BS000695	Severe acute respiratory syndrome coronavirus 2	BS000695	2021-06-02	2020-04-10		Japan			Homo sapiens	Kanto			
BS000696	Severe acute respiratory syndrome coronavirus 2	BS000696	2021-06-02	2020-04-10		Japan			Homo sapiens	Kanto			
BS000697	Severe acute respiratory syndrome coronavirus 2	BS000697	2021-06-02	2020-04-11		Japan			Homo sapiens	Kanto			
BS000698	Severe acute respiratory syndrome coronavirus 2	BS000698	2021-06-02	2020-04-13		Japan			Homo sapiens	Kanto			
BS000699	Severe acute respiratory syndrome coronavirus 2	BS000699	2021-06-02	2020-04-13		Japan			Homo sapiens	Kanto			
BS000700	Severe acute respiratory syndrome coronavirus 2	BS000700	2021-06-02	2020-04-14		Japan			Homo sapiens	Kanto			
BS000701	Severe acute respiratory syndrome coronavirus 2	BS000701	2021-06-02	2020-04-14		Japan			Homo sapiens	Kanto			
BS000702	Severe acute respiratory syndrome coronavirus 2	BS000702	2021-06-02	2020-04-16		Japan			Homo sapiens	Kanto			
BS000703	Severe acute respiratory syndrome coronavirus 2	BS000703	2021-06-02	2020-04-16		Japan			Homo sapiens	Kanto			
BS000704	Severe acute respiratory syndrome coronavirus 2	BS000704	2021-06-02	2020-04-20		Japan			Homo sapiens	Kanto			
